LINE,SECTION,BUYER,PO,STYLE,COLOR,DNM,SMV,QTY,SNM
line3,section1,Buyer3,PO3,Style3,Color3,TEAM03,35,600,Team03
line4,section1,Buyer4,PO4,Style4,Color4,TEAM04,35,600,Team04
line5,section2,Buyer5,PO5,Style5,Color5,TEAM05,35,600,Team05
line9,section2,Buyer9,PO9,Style9,Color9,TEAM09,35,600,Team09
